…
```
## # A tibble: 902,297 x 37
##    STATE__           BGN_DATE BGN_TIME TIME_ZONE COUNTY COUNTYNAME  STATE
##      <dbl>             <fctr>   <fctr>    <fctr>  <dbl>     <fctr> <fctr>
## 1        1  4/18/1950 0:00:00     0130       CST     97     MOBILE     AL
## 2        1  4/18/1950 0:00:00     0145       CST      3    BALDWIN     AL
## 3        1  2/20/1951 0:00:00     1600       CST     57    FAYETTE     AL
## 4        1   6/8/1951 0:00:00     0900       CST     89    MADISON     AL
## 5        1 11/15/1951 0:00:00     1500       CST     43    CULLMAN     AL
## 6        1 11/15/1951 0:00:00     2000       CST     77 LAUDERDALE     AL
## 7        1 11/16/1951 0:00:00     0100       CST      9     BLOUNT     AL
## 8        1  1/22/1952 0:00:00     0900       CST    123 TALLAPOOSA     AL
## 9        1  2/13/1952 0:00:00     2000       CST    125 TUSCALOOSA     AL
## 10       1  2/13/1952 0:00:00     2000       CST     57    FAYETTE     AL
## # ... with 902,287 more rows, and 30 more variables: EVTYPE <fctr>,
## #   BGN_RANGE <dbl>, BGN_AZI <fctr>, BGN_LOCATI <fctr>, END_DATE <fctr>,
## #   END_TIME <fctr>, COUNTY_END <dbl>, COUNTYENDN <lgl>, END_RANGE <dbl>,
## #   END_AZI <fctr>, END_LOCATI <fctr>, LENGTH <dbl>, WIDTH <dbl>, F <int>,
## #   MAG <dbl>, FATALITIES <dbl>, INJURIES <dbl>, PROPDMG <dbl>,
## #   PROPDMGEXP <fctr>, CROPDMG <dbl>, CROPDMGEXP <fctr>, WFO <fctr>,
## #   STATEOFFIC <fctr>, ZONENAMES <fctr>, LATITUDE <dbl>, LONGITUDE <dbl>,
## #   LATITUDE_E <dbl>, LONGITUDE_ <dbl>, REMARKS <fctr>, REFNUM <dbl>
```
…
DF_prep <-                                          ## Create DF_prep
        DF_raw %>%                                  ## use DF-raw to
        select(EVTYPE, FATALITIES, INJURIES,        ## select relevant columns
               PROPDMG, PROPDMGEXP, 
               CROPDMG, CROPDMGEXP) %>%
        mutate(PROPDMGTOT = PROPDMG * propmult) %>% ## add actual prop damage
        mutate(CROPDMGTOT = CROPDMG * cropmult) %>% ## add actual crop damage
        print()                                     ## and let's have a look
```

```
## # A tibble: 902,297 x 9
##     EVTYPE FATALITIES INJURIES PROPDMG PROPDMGEXP CROPDMG CROPDMGEXP
##     <fctr>      <dbl>    <dbl>   <dbl>     <fctr>   <dbl>     <fctr>
## 1  TORNADO          0       15    25.0          K       0           
## 2  TORNADO          0        0     2.5          K       0           
## 3  TORNADO          0        2    25.0          K       0           
## 4  TORNADO          0        2     2.5          K       0           
## 5  TORNADO          0        2     2.5          K       0           
## 6  TORNADO          0        6     2.5          K       0           
## 7  TORNADO          0        1     2.5          K       0           
## 8  TORNADO          0        0     2.5          K       0           
## 9  TORNADO          1       14    25.0          K       0           
## 10 TORNADO          0        0    25.0          K       0           
## # ... with 902,287 more rows, and 2 more variables: PROPDMGTOT <dbl>,
## #   CROPDMGTOT <dbl>
```
…
